          79       1
 
 2.900015E-03
 5.184278E-03
 9.267784E-03
 1.656776E-02
 2.961772E-02
 5.294673E-02
 9.465145E-02
 1.692055E-01
 3.024835E-01
 5.410633E-01
 9.680236E-01
 1.732089E+00
 3.106282E+00
 5.581844E+00
 1.005654E+01
 1.823865E+01
 3.337475E+01
 6.182992E+01
 1.155774E+02
 2.134159E+02
 3.858625E+02
 4.395132E+02
 5.020814E+02
 5.755865E+02
 6.581338E+02
 7.576427E+02
 8.682339E+02
 1.003243E+03
 1.067063E+03
 1.006367E+03
 8.699153E+02
 7.307215E+02
 6.414243E+02
 7.547016E+02
 1.024750E+03
 1.395250E+03
 1.834787E+03
 2.442615E+03
 2.838012E+03
 2.826650E+03
 1.805206E+03
 1.042797E+03
 4.118901E+02
 2.553725E+02
 2.497379E+02
 2.537277E+02
 2.526623E+02
 2.712071E+02
 3.367245E+02
 4.102345E+02
 5.275486E+02
 6.148626E+02
 8.169435E+02
 9.641776E+02
 1.235442E+03
 1.546014E+03
 1.857487E+03
 2.296012E+03
 2.542704E+03
 3.079356E+03
 3.535895E+03
 4.212737E+03
 4.953970E+03
 7.914501E+03
 1.655680E+04
 2.675299E+04
 3.185263E+04
 3.757128E+04
 3.924272E+04
 2.492317E+04
 2.223675E+04
 2.116485E+04
 1.978925E+04
 1.823734E+04
 1.692589E+04
 1.637137E+04
 1.510901E+04
 1.435850E+04
 1.448684E+04
 
 9.599700E-11
 3.067850E-10
 9.804132E-10
 3.133174E-09
 1.001292E-08
 3.199895E-08
 1.022616E-07
 3.268037E-07
 1.044391E-06
 3.337577E-06
 1.066811E-05
 3.410228E-05
 1.090362E-04
 3.487887E-04
 1.116329E-03
 3.576601E-03
 1.147481E-02
 3.683604E-02
 1.177982E-01
 3.722488E-01
 1.168640E+00
 1.484209E+00
 1.885392E+00
 2.396385E+00
 3.010072E+00
 3.775872E+00
 4.647655E+00
 5.524965E+00
 5.891744E+00
 5.908793E+00
 6.234852E+00
 7.605953E+00
 1.098169E+01
 1.786243E+01
 2.672428E+01
 3.753291E+01
 4.959526E+01
 6.265422E+01
 6.335692E+01
 4.885901E+01
 2.140229E+01
 9.688051E+00
 1.168678E+01
 2.925665E+01
 5.135406E+01
 7.743990E+01
 1.097299E+02
 2.769863E+02
 6.053145E+02
 1.146013E+03
 1.976965E+03
 2.887475E+03
 4.278891E+03
 5.073625E+03
 6.431633E+03
 7.327664E+03
 8.704950E+03
 1.008787E+04
 1.133916E+04
 1.335831E+04
 1.450962E+04
 1.730950E+04
 2.014661E+04
 2.078439E+04
 2.041118E+04
 1.806484E+04
 1.965741E+04
 2.041620E+04
 2.253704E+04
 2.023138E+04
 1.440558E+04
 1.353581E+04
 1.311303E+04
 1.266608E+04
 1.191479E+04
 1.132586E+04
 1.098361E+04
 1.042944E+04
 1.003600E+04
