# This file defines the shape of the 
# spectrum used to calculate the
# average cross sections, photoheating
# rates and shielding factors.
# This example is a power-law AGN SED (Laor & Draine 1993)
# ++++++++++++++++++++++++++++++++++++++++++++++++++++++++++++++++++++++++
# Column      Variable      Units          Description
# ++++++++++++++++++++++++++++++++++++++++++++++++++++++++++++++++++++++++
#   1	      log10(E)       Ryd           log10 of the photon
#   	   	       	                   energy in Ryd
#   2        log10(J_nu) erg/s/sr/cm^2/Hz  log10 of the specific intensity
#   	     		 		   in erg/s/sr/cm^2/Hz 
# ++++++++++++++++++++++++++++++++++++++++++++++++++++++++++++++++++++++++'
-9.516993 19.070000
-2.818279 38.316786
-2.341157 38.078225
-1.517249 37.254316
-1.040127 36.538635
-0.081520 36.059331
2.167481 32.910729
4.167481 30.910729
10.000000 19.245691
